[
  "SpanishFir",
  "AcornBanksia",
  "Adenostyles",
  "AdriaBellflower",
  "AfricanCornflag",
  "Agrimony",
  "Aizoon",
  "AlbanyBottlebrush",
  "Alder",
  "AlpineAster",
  "AlpineBartsia",
  "AlpineBartsia",
  "AlpineBearberry",
  "AlpineCalamint",
  "AlpineClematis",
  "AlpineClubmoss",
  "AlpineClubmoss",
  "AlpineColumbine",
  "AlpineLeek",
  "AlpinePlantain",
  "AlpineRockJasmine",
  "AlpineSneezewort",
  "Amelanchier",
  "Andryala",
  "AniseedBoronia",
  "AnnualDaisy",
  "Aposeris",
  "Arnica",
  "Aubretia",
  "Aubretia",
  "Aubretia",
  "AustralianBluebell",
  "Badassi",
  "BaldWhiteWhitlowgrass",
  "Baneberry",
  "Barberry",
  "BarrenBrome",
  "BasilThyme",
  "BasilThyme",
  "BasketFlower",
  "BastardAgrimony",
  "Bearberry",
  "BeardedBellfower",
  "Bellevalia",
  "Betony",
  "BillyButtons",
  "Biscutella",
  "BiserrateMilfoil",
  "BlackHorehound",
  "BlackMustard",
  "BlackSpleenwort",
  "BladderVetch",
  "BlowflyGrass",
  "BlueAnemone",
  "BlueAphyllanthes",
  "BlueBoronia",
  "BlueChinaOrchid",
  "BlueSmokebush",
  "BlueSquill",
  "BlueTinselLily",
  "BogPimpernel",
  "BogRosemary",
  "Bookleaf",
  "Borage",
  "Borage",
  "BottleSedge",
  "Bottlebrush",
  "Box",
  "Box",
  "BranchedCentaury",
  "BristlyCottonhead",
  "Broom",
  "BroomMilkwort",
  "BrownBent",
  "BrownGalingale",
  "BrownKnapweed",
  "BrownSedge",
  "BucklerMustard",
  "BugOrchid",
  "Bugle",
  "Bugle",
  "Bugloss",
  "BurChervil",
  "BurntCandytuft",
  "BurntCandytuft",
  "ButterflyBush",
  "Cabbage",
  "Californiabrome",
  "CanadianFleabane",
  "CanaryCistus",
  "CanaryIslandsStrawberryTree",
  "CanarySamphire",
  "CanaryShrubCornflower",
  "CapeWeed",
  "Caper",
  "CapitateGalingale",
  "Caraway",
  "CarlineThistle",
  "CarnationSedge",
  "Carob",
  "CarouselSpiderOrchid",
  "CarpathianCatsfoot",
  "CenturyPlant",
  "ChalkKnapweed",
  "Chamomile",
  "Cheeseberry",
  "Chicory",
  "ChineseMugwort",
  "Chives",
  "CiliateRockJasmine",
  "Cistanche",
  "ClimbingCorydalis",
  "CloudedYellow",
  "CloudedYellow",
  "ClownOrchid",
  "ClubbedSpiderOrchid",
  "ClusterBoronia",
  "ClusteredBellfower",
  "CoastWattle",
  "CoastalHibiscus",
  "CoastalWoollybush",
  "Columbine",
  "CommonAppleberry",
  "CommonBent",
  "CommonBrownPea",
  "CommonCalamint",
  "CommonCentaury",
  "CommonClematis",
  "CommonCotoneaster",
  "CommonDampiera",
  "CommonFiddleneck",
  "CommonFringeMyrtle",
  "CommonKnapweed",
  "CommonNetBush",
  "CommonOrache",
  "CommonScurvygrass",
  "CommonSedge",
  "CommonSpiderOrchid",
  "CommonSpottedOrchid",
  "CommonWoollybush",
  "CommonYellowSedge",
  "CommonYellowSedge",
  "CompactBrome",
  "ConeSundew",
  "Conopodium",
  "Coralroot",
  "Coralroot",
  "CoralrootOrchid",
  "Coriander",
  "Coris",
  "CornMarigold",
  "CornMarigold",
  "Corncockle",
  "Cornflower",
  "CouchHoneypot",
  "CouchHoneypot",
  "CowParsley",
  "Cowbane",
  "CowslipOrchid",
  "CreepingBellflower",
  "CreepingBent",
  "CreepingThistle",
  "CretanCistus",
  "CretanSowbread",
  "Crosswort",
  "Crosswort",
  "CrowGarlic",
  "CrownAnemone",
  "CrownDaisy",
  "Crupina",
  "CuckooFlower",
  "CurvedSedge",
  "Dactylorhizasambucina",
  "DaintyBlueChinaOrchid",
  "Daisy",
  "DancingSpiderOrchid",
  "DanishScurvygrass",
  "DarkColumbine",
  "DarkGreenFritillary",
  "DarkGreenFritillary",
  "DeadlyNightshade",
  "DeadlyNightshade",
  "DeptfordPink",
  "Diapensia",
  "Dipcadi",
  "DistaffThistle",
  "DistantSedge",
  "Dodder",
  "Dogwood",
  "DonkeyOrchid",
  "Dorycnium",
  "DottedSedge",
  "DownyBirch",
  "DownyBirch",
  "DragonArum",
  "DuneWormwood",
  "DuskyWoodswallow",
  "DwarfConvolvulus",
  "DwarfCornel",
  "DwarfSedge",
  "DwarfThistle",
  "EarlyMarshOrchid",
  "EarlyMarshOrchid",
  "EarlyMarshOrchid",
  "EasternLarkspur",
  "Endive",
  "EstuarineSedge",
  "FalseAster",
  "FalseBrome",
  "FalseDittany",
  "FalseMuskOrchid",
  "FalseVetch",
  "FeltyBellflower",
  "FieldBindweed",
  "FieldBindweed",
  "FieldDodder",
  "FieldMaple",
  "FieldMarigold",
  "FingeredSedge",
  "FirewoodBanksia",
  "FlameAdonis",
  "FlannelFlower",
  "FlatSedge",
  "FleaSedge",
  "Flixweed",
  "FloweringRush",
  "FlyAgaric",
  "ForkedSpleenwort",
  "ForkedSpleenwort",
  "Foxglove",
  "Foxtails",
  "FragrantAgrimony",
  "FringedCotoneaster",
  "FringedMantisOrchid",
  "FrogOrchid",
  "FrogOrchid",
  "FrogOrchid",
  "FrogOrchid",
  "Frostedorache",
  "GairdnerRangeStarbush",
  "Galah",
  "Galingale",
  "GardenAnchusa",
  "GardenAngelica",
  "GardenArabis",
  "GardenArabis",
  "GardenAsparagus",
  "GarlicMustard",
  "GeraldtonWax",
  "GeraniumBronze",
  "GiantBellfower",
  "GiantOrchid",
  "GiantReed",
  "GiantScabious",
  "GlaucousSedge",
  "GlowingDampiera",
  "GodlingstonSundew",
  "GoldenAlison",
  "GoldenChervil",
  "GoldenDryandra",
  "GoldenDryandra",
  "GoldilocksAster",
  "GoodKingHenry",
  "GoodKingHenry",
  "GraniteBoronia",
  "GreatBougainvillea",
  "GreatDodder",
  "GreatMasterwort",
  "GreatSundew",
  "GreaterCelandine",
  "GreaterCuckooflower",
  "GreaterCuckooflower",
  "GreaterKnapweed",
  "GreaterSnapdragon",
  "GreaterSpottedWoodpecker",
  "GreekStrawberryTree",
  "GreenAlder",
  "GreenAmaranth",
  "GreenAmaranth",
  "GreenCestrum",
  "GreenHairstreak",
  "GreenHairstreak",
  "GreenSpleenwort",
  "GreyCottonhead",
  "GreyHeron",
  "GreySedge",
  "HairSedge",
  "HairyBittercress",
  "HairyGarlic",
  "HairySedge",
  "HairyThornyBroom",
  "HardyBegonia",
  "Harebell",
  "Hawthorn",
  "Hawthorn",
  "Hazel",
  "HeathSpottedOrchid",
  "HeathSpottedOrchid",
  "Heather",
  "HedgeBarberry",
  "HedgeBindweed",
  "Hemlock",
  "HighlandBent",
  "HimalayanCotoneaster",
  "HoaryAlison",
  "HoaryWhitlowgrass",
  "HollyBlue",
  "HollyberryCotoneaster",
  "HolyOrchid",
  "HoneypotDryandra",
  "HoneypotDryandra",
  "Honeywort",
  "HoporCyperusSedge",
  "Horizontal",
  "Hornbeam",
  "HungarianBrome",
  "HybridHawthorn",
  "HybridMarshOrchid",
  "HybridMarshOrchid",
  "HybridMarshOrchid",
  "HybridOrchid",
  "HybridSedge",
  "HybridSedge",
  "HybridSedge",
  "IrishSpleenwort",
  "IsleofManCabbage",
  "ItalianAlder",
  "ItalianCypress",
  "ItalianToadflax",
  "Jackdaw",
  "JamTree",
  "JerseyFern",
  "JerseyFern",
  "JerseyThrift",
  "JudasTree",
  "KangarooPaw",
  "KangtingCotoneaster",
  "KarriWattle",
  "KickBush",
  "KidneyVetch",
  "KidneyVetch",
  "KidneyVetch",
  "KidneyVetch",
  "KidneyVetch",
  "KingBillyPine",
  "KingCupsorMarshMarigold",
  "LanceolateSpleenwort",
  "LargeBindweed",
  "LargeBlueAlkanet",
  "LargeWaxflower",
  "LateCotoneaster",
  "LeafySundew",
  "LeapingSpiderOrchid",
  "Leptinella",
  "LesserBurdock",
  "LesserCentaury",
  "LilacHibiscus",
  "LittlePinkFairyOrchid",
  "LordsandLadies",
  "LoveCreeper",
  "MaidenPink",
  "MaidenPink",
  "MaidenhairFern",
  "MaidenhairFern",
  "MaidenhairFern",
  "MaidenhairSpleenwort",
  "MaidenhairSpleenwort",
  "MallingToadflax",
  "MallowSkipper",
  "ManOrchid",
  "ManOrchid",
  "MargueriteDaisy",
  "Marram",
  "MarshFoxtail",
  "MarshMarigold",
  "MarshThistle",
  "MatchstickBanksia",
  "MazarineBlue",
  "MeadowFoxtail",
  "MeadowSaffron",
  "MeadowSaffron",
  "MeadowThistle",
  "MediterraneanCrownVetch",
  "MediterraneanLinseed",
  "MediterraneanMedlar",
  "MelancholyThistle",
  "MexicanPricklyPoppy",
  "Mezereon",
  "Milkmaids",
  "Montbretia",
  "MonteBaldoAnemone",
  "Moonwort",
  "Moonwort",
  "MoroccanOrangeTip",
  "MoroccoKnapweed",
  "MosquitoGrass",
  "MossyStonecrop",
  "MountainAlison",
  "MountainAvens",
  "MountainAvens",
  "MountainBladderFern",
  "Mountaineverlasting",
  "MountaineverlastingorCatsfoot",
  "MountainSandwort",
  "MountainScurvygrass",
  "Mugwort",
  "MuskMilfoil",
  "NativeCornflower",
  "NativeLaurel",
  "NativePigface",
  "NativeWillow",
  "NeapolitanGarlic",
  "NeapolitanGarlic",
  "NewZealandPygmyweed",
  "Nocommonname",
  "NoddingorMuskThistle",
  "NoddingorMuskThistle",
  "NorwayMaple",
  "NorwegianMugwort",
  "ObovateSundew",
  "OnionWeed",
  "Orange",
  "OrangeTip",
  "OrangeWattle",
  "OrientalAlkanet",
  "OvalSedge",
  "OvalSedge",
  "OvalSedge",
  "PaddyMelons",
  "PaleGalingale",
  "PalePinkBoronia",
  "PaleSedge",
  "ParrotBush",
  "ParrotBush",
  "ParsleyFern",
  "ParsleyFern",
  "PearlFlower",
  "PearlyEverlasting",
  "Penduloussedge",
  "Peppermint",
  "PerennialCornflower",
  "PerennialPigweed",
  "PerennialTarVine",
  "PersianCandytuft",
  "PersianSowbread",
  "Pignut",
  "PillSedge",
  "PincushionMistletoe",
  "Pincushions",
  "Pingle",
  "Pingle",
  "PinkButterflyOrchid",
  "PinkCandyOrchid",
  "PinkGarlic",
  "PinkPurslane",
  "PinkRainbow",
  "PinkRockJasmine",
  "PitchTrefoil",
  "PlumeSmokebush",
  "PomPomDarwinia",
  "PompomHead",
  "PotMarigold",
  "PotMarigold",
  "PouchedDampiera",
  "PricklyAlkanet",
  "PricklyConostylis",
  "PricklyMoses",
  "ProstrateBroom",
  "ProstrateBroom",
  "PurpleNutSedge",
  "PurplePansyOrchid",
  "PyramidalBugle",
  "PyramidalBugle",
  "PyramidalOrchid",
  "PyramidalOrchid",
  "PyreneanBroom",
  "PyreneanColumbine",
  "PyreneanScurvygrass",
  "PyreneanScurvygrass",
  "PyreneanScurvygrass",
  "PyreneanThistle",
  "PyreneanWoodruff",
  "Ragweed",
  "Ramsons",
  "RaylessChamomile",
  "RedGoosefoot",
  "RedSwampCranberry",
  "RedValerian",
  "RemoteSedge",
  "RigidBucklerFern",
  "RigidHornwort",
  "RingedPlover",
  "Ringlet",
  "RipgutBrome",
  "RiverRose",
  "RockFern",
  "RockJasmine",
  "RockJasmine",
  "RockSamphire",
  "RockSnapdragon",
  "RockWhitlowgrass",
  "RomanOrchid",
  "RosebayWillowherb",
  "RosyGarlic",
  "RosyGarlic",
  "RoughChervil",
  "RoughMallow",
  "RussetSedge",
  "RustySedge",
  "RustySpiderOrchid?",
  "Rustyback",
  "Rustyback",
  "Rustyback",
  "Rustyback",
  "SailBoatWattle",
  "SandHibiscus",
  "SandSedge",
  "SandplainCranberry",
  "Sassafras",
  "ScarletPimpernel",
  "ScarletPimpernel",
  "ScorpionVetchorFalseSenna",
  "SeaAster",
  "SeaBeet",
  "SeaBindweed",
  "SeaKale",
  "SeaPurslane",
  "SeaRocket",
  "SeaRocket",
  "SeaRocket",
  "SeaSpleenwort",
  "SeaSquill",
  "SeaWormwood",
  "SeasideCentaury",
  "SheathedSedge",
  "ShrubRagwort",
  "ShrubbyOrache",
  "ShrubbyOrache(Spain)",
  "SicilianChamomile",
  "SicilianSnapdragon",
  "SilkyBlueOrchid",
  "SilverBanksia",
  "SilverBirch",
  "SilverBirch",
  "SilverGull",
  "SilverWashedFritillary",
  "SilverWattle",
  "SilveryCottonheads",
  "SilveryMilfoil",
  "SlenderBanksia",
  "SlenderBorage",
  "SlenderThistle",
  "SmallBlue",
  "SmallBlue",
  "SmallBlueConvolvulus",
  "SmallHeath",
  "SmallHeath",
  "SmallTeasel",
  "SmallToadflax",
  "SmallTortoiseshell",
  "Snapdragon",
  "Sneezewort",
  "SoftHornwort",
  "SouthAfricanWeedOrchid",
  "SouthernDaisy"
]
